…
We can plot this allele frequency vector with `ggplot`. First, because `ggplot` requires its input data to be formatted as a table, we have to convert the vector into some form of table. (We chose `tibble` form here because it's easy to convert to.)


```r
sim_results <- tibble(af = freq_vector)
sim_results
```

```
## # A tibble: 21 x 1
##       af
##    <dbl>
##  1  0.5 
##  2  0.52
##  3  0.64
##  4  0.63
##  5  0.65
##  6  0.63
##  7  0.61
##  8  0.68
##  9  0.68
## 10  0.65
## # … with 11 more rows
```

This table contains the information that we want on the plot's y axis. We can now add in a column containing the plot's x axis data. This should be the **generation** that each AF value corresponds to.


```r
sim_results <- tibble(af = freq_vector,
                      gen = 1:21)
sim_results
```

```
## # A tibble: 21 x 2
##       af   gen
##    <dbl> <int>
##  1  0.5      1
##  2  0.52     2
##  3  0.64     3
##  4  0.63     4
##  5  0.65     5
##  6  0.63     6
##  7  0.61     7
##  8  0.68     8
##  9  0.68     9
## 10  0.65    10
## # … with 11 more rows
```
…
