5.5 Tidying VCF data | Human Genome Variation Lab
…
vcfR reformats VCFs into its own data class, which is easy to manipulate using vcfR functions, but hard to access directly from the vcf variable.

We’ll use the vcfR2tidy function in order to convert vcf into tidy dataframes suitable for analysis with R:

# convert vcf into three tidy dataframes
tidied <- vcfR2tidy(vcf,
                    # tell vcfR to turn these INFO fields into integers
                    info_types = c(AF = "n", EAS_AF = "n",
                                   EUR_AF = "n", AFR_AF = "n",
                                   AMR_AF = "n", SAS_AF = "n"))
tidied

## $fix
## # A tibble: 10,000 x 20
##    ChromKey CHROM    POS ID    REF   ALT    QUAL FILTER    AF AC    NS    AN   
##       <int> <chr>  <int> <chr> <chr> <chr> <dbl> <chr>  <dbl> <chr> <chr> <chr>
##  1        1 chr21 1.00e7 <NA>  C     A        NA PASS    0.02 89    2548  5008 
##  2        1 chr21 1.03e7 <NA>  A     G        NA PASS    0.02 84    2548  5008 
##  3        1 chr21 1.03e7 <NA>  G     A        NA PASS    0    3     2548  5008 
##  4        1 chr21 1.03e7 <NA>  A     C        NA PASS    0    1     2548  5008 
##  5        1 chr21 1.03e7 <NA>  C     A        NA PASS    0    3     2548  5008 
##  6        1 chr21 1.03e7 <NA>  A     T        NA PASS    0    4     2548  5008 
##  7        1 chr21 1.03e7 <NA>  G     A        NA PASS    0    4     2548  5008 
##  8        1 chr21 1.03e7 <NA>  A     G        NA PASS    0    7     2548  5008 
##  9        1 chr21 1.03e7 <NA>  A     C        NA PASS    0    1     2548  5008 
## 10        1 chr21 1.03e7 <NA>  G     C        NA PASS    0    1     2548  5008 
## # … with 9,990 more rows, and 8 more variables: EAS_AF <dbl>, EUR_AF <dbl>,
## #   AFR_AF <dbl>, AMR_AF <dbl>, SAS_AF <dbl>, VT <chr>, EX_TARGET <chr>,
## #   DP <chr>
## 
## $gt
## # A tibble: 25,040,000 x 5
##    ChromKey      POS Indiv   gt_GT gt_GT_alleles
##       <int>    <int> <chr>   <chr> <chr>        
##  1        1 10005999 HG00096 0|0   C|C          
##  2        1 10325486 HG00096 0|0   A|A          
##  3        1 10336823 HG00096 0|0   G|G          
##  4        1 10337236 HG00096 0|0   A|A          
##  5        1 10339129 HG00096 0|0   C|C          
##  6        1 10339141 HG00096 0|0   A|A          
##  7        1 10339175 HG00096 0|0   G|G          
##  8        1 10339803 HG00096 0|0   A|A          
##  9        1 10339869 HG00096 0|0   A|A          
## 10        1 10347083 HG00096 0|0   G|G          
## # … with 25,039,990 more rows
## 
## $meta
…
tidied is a list (a type of R object) of three dataframes:

fix: Location, identity, allele frequency, etc. of variants in the VCF

gt: Genotypes of the VCF samples

meta: Information from the VCF header

We’ll be using the variants information from tidied, so let’s store it in a separate table:

# make variants dataframe
variants <- tidied$fix
variants

## # A tibble: 10,000 x 20
##    ChromKey CHROM    POS ID    REF   ALT    QUAL FILTER    AF AC    NS    AN   
##       <int> <chr>  <int> <chr> <chr> <chr> <dbl> <chr>  <dbl> <chr> <chr> <chr>
##  1        1 chr21 1.00e7 <NA>  C     A        NA PASS    0.02 89    2548  5008 
##  2        1 chr21 1.03e7 <NA>  A     G        NA PASS    0.02 84    2548  5008 
##  3        1 chr21 1.03e7 <NA>  G     A        NA PASS    0    3     2548  5008 
##  4        1 chr21 1.03e7 <NA>  A     C        NA PASS    0    1     2548  5008 
##  5        1 chr21 1.03e7 <NA>  C     A        NA PASS    0    3     2548  5008 
##  6        1 chr21 1.03e7 <NA>  A     T        NA PASS    0    4     2548  5008 
##  7        1 chr21 1.03e7 <NA>  G     A        NA PASS    0    4     2548  5008 
##  8        1 chr21 1.03e7 <NA>  A     G        NA PASS    0    7     2548  5008 
##  9        1 chr21 1.03e7 <NA>  A     C        NA PASS    0    1     2548  5008 
## 10        1 chr21 1.03e7 <NA>  G     C        NA PASS    0    1     2548  5008 
## # … with 9,990 more rows, and 8 more variables: EAS_AF <dbl>, EUR_AF <dbl>,
## #   AFR_AF <dbl>, AMR_AF <dbl>, SAS_AF <dbl>, VT <chr>, EX_TARGET <chr>,
## #   DP <chr>
…
